Extracting MSEC data from a netcdf file - Marine Ecology & Data Science
…
Get NOAA lat longs

Get range of lat & longs in df

# Load list of lat-longs
noaa_ll <- read_csv("~/github/powell2/data_output/noaa_ll_date.csv") %>% 
  select(ll_id, REGION:SI_LONG)
noaa_ll

## # A tibble: 4,316 x 4
##    ll_id REGION  SI_LATI   SI_LONG
##    <int>  <chr>    <dbl>     <dbl>
##  1     1  PRICO 17.87082 -66.49521
##  2     2  PRICO 17.86940 -66.25568
##  3     3  PRICO 17.87745 -66.48427
##  4     4  PRICO 17.87594 -66.27114
##  5     5  PRICO 17.87948 -66.26637
##  6     6  PRICO 17.87794 -66.15841
##  7     7  PRICO 17.87743 -66.12400
##  8     8  PRICO 17.87838 -66.15746
##  9     9  PRICO 17.87950 -66.11124
## 10    10  PRICO 17.88581 -66.50208
## # ... with 4,306 more rows
…
